…
print(lw_data)
```

```
## # A tibble: 165 x 3
##    monitoring_location_latitude monitoring_location_longitude result_value
##                           <dbl>                         <dbl>        <dbl>
##  1                         50.5                         -96.9           91
##  2                         50.5                         -96.8           55
##  3                         50.6                         -96.8           75
##  4                         50.7                         -96.8           45
##  5                         50.8                         -96.8           48
##  6                         50.7                         -96.6           52
##  7                         50.8                         -96.6           46
##  8                         50.7                         -96.5            6
##  9                         50.6                         -96.4            6
## 10                         50.9                         -96.4            7
## # … with 155 more rows
```
…
```r
fetches_260 <- tibble(bearing = seq(0,360,10)) %>% 
  mutate(fetch = map_dbl(.x = bearing, ~lakeFetch(lake_260_morph,.x))) %>% 
  arrange(desc(fetch))

print(fetches_260)
```

```
## # A tibble: 37 x 2
##    bearing fetch
##      <dbl> <dbl>
##  1      40  986.
##  2     220  986.
##  3      30  983.
##  4     210  983.
##  5      20  974.
##  6     200  974.
##  7      10  894.
##  8     190  894.
##  9       0  819.
## 10     180  819.
## # … with 27 more rows
```
…
